INDEX VERSION 1.126+/Users/mertsimsek/Dropbox/Programming/jsfworkspace/.metadata/.plugins/org.eclipse.jdt.core
3167224297.index
3559256792.index
521400621.index
3791741525.index
3812318669.index
1841512836.index
